\noaddvspace 
\addvspace {10\p@ }
\addvspace {10\p@ }
\addvspace {10\p@ }
\contentsline {figure}{\numberline {3.1}{\ignorespaces Chain for new waste \relax }}{12}{figure.caption.8}
\contentsline {figure}{\numberline {3.2}{\ignorespaces Chain for Picker's Request \relax }}{13}{figure.caption.9}
\contentsline {figure}{\numberline {3.3}{\ignorespaces Overall Chaining process \relax }}{13}{figure.caption.10}
\contentsline {figure}{\numberline {3.4}{\ignorespaces Invalid Chaining Process \relax }}{14}{figure.caption.11}
\contentsline {figure}{\numberline {3.5}{\ignorespaces Valid Chaining Process \relax }}{14}{figure.caption.12}
\contentsline {figure}{\numberline {3.6}{\ignorespaces Valid Chaining Process \relax }}{15}{figure.caption.13}
\addvspace {10\p@ }
\contentsline {figure}{\numberline {4.1}{\ignorespaces View data by type\relax }}{16}{figure.caption.14}
\contentsline {subfigure}{\numberline {(a)}{\ignorespaces {Circular patterns}}}{16}{subfigure.1.1}
\contentsline {subfigure}{\numberline {(b)}{\ignorespaces {General data}}}{16}{subfigure.1.2}
\contentsline {figure}{\numberline {4.2}{\ignorespaces Nearby trucks and directions\relax }}{17}{figure.caption.15}
\contentsline {subfigure}{\numberline {(a)}{\ignorespaces {Direction }}}{17}{subfigure.2.1}
\contentsline {subfigure}{\numberline {(b)}{\ignorespaces {Nearby trucks}}}{17}{subfigure.2.2}
\contentsline {figure}{\numberline {4.3}{\ignorespaces Gantt Chart \relax }}{19}{figure.caption.16}
