\BOOKMARK [0][-]{chapter*.2}{Approval Letter}{}% 1
\BOOKMARK [0][-]{chapter*.3}{Abstract}{}% 2
\BOOKMARK [0][-]{chapter*.4}{Acknowledgment}{}% 3
\BOOKMARK [0][-]{chapter*.7}{List of Abbreviations}{}% 4
\BOOKMARK [0][-]{chapter.1}{Introduction}{}% 5
\BOOKMARK [1][-]{section.1.1}{Background}{chapter.1}% 6
\BOOKMARK [1][-]{section.1.2}{Problem Statement}{chapter.1}% 7
\BOOKMARK [1][-]{section.1.3}{Objective}{chapter.1}% 8
\BOOKMARK [1][-]{section.1.4}{Application}{chapter.1}% 9
\BOOKMARK [1][-]{section.1.5}{Features}{chapter.1}% 10
\BOOKMARK [1][-]{section.1.6}{Feasibility Analysis}{chapter.1}% 11
\BOOKMARK [2][-]{subsection.1.6.1}{Economic feasibility }{section.1.6}% 12
\BOOKMARK [2][-]{subsection.1.6.2}{Technical feasibility }{section.1.6}% 13
\BOOKMARK [2][-]{subsection.1.6.3}{Operational feasibility }{section.1.6}% 14
\BOOKMARK [1][-]{section.1.7}{System Requirement}{chapter.1}% 15
\BOOKMARK [2][-]{subsection.1.7.1}{Software Requirement }{section.1.7}% 16
\BOOKMARK [2][-]{subsection.1.7.2}{Hardware Requirement }{section.1.7}% 17
\BOOKMARK [0][-]{chapter.2}{Literature Review}{}% 18
\BOOKMARK [1][-]{section.2.1}{Background}{chapter.2}% 19
\BOOKMARK [0][-]{chapter.3}{Methodology}{}% 20
\BOOKMARK [1][-]{section.3.1}{Prototype model}{chapter.3}% 21
\BOOKMARK [1][-]{section.3.2}{Chain Algorithm}{chapter.3}% 22
\BOOKMARK [2][-]{subsection.3.2.1}{User perspective}{section.3.2}% 23
\BOOKMARK [2][-]{subsection.3.2.2}{Pickers perspective}{section.3.2}% 24
\BOOKMARK [1][-]{section.3.3}{Use case diagram}{chapter.3}% 25
\BOOKMARK [0][-]{chapter.4}{Results and Discussion}{}% 26
\BOOKMARK [1][-]{section.4.1}{Output}{chapter.4}% 27
\BOOKMARK [1][-]{section.4.2}{Limitations}{chapter.4}% 28
\BOOKMARK [1][-]{section.4.3}{Problems Faced}{chapter.4}% 29
\BOOKMARK [1][-]{section.4.4}{Work Schedule}{chapter.4}% 30
\BOOKMARK [0][-]{figure.caption.16}{References}{}% 31
