\relax 
\providecommand\hyper@newdestlabel[2]{}
\providecommand\zref@newlabel[2]{}
\providecommand\HyperFirstAtBeginDocument{\AtBeginDocument}
\HyperFirstAtBeginDocument{\ifx\hyper@anchor\@undefined
\global\let\oldcontentsline\contentsline
\gdef\contentsline#1#2#3#4{\oldcontentsline{#1}{#2}{#3}}
\global\let\oldnewlabel\newlabel
\gdef\newlabel#1#2{\newlabelxx{#1}#2}
\gdef\newlabelxx#1#2#3#4#5#6{\oldnewlabel{#1}{{#2}{#3}}}
\AtEndDocument{\ifx\hyper@anchor\@undefined
\let\contentsline\oldcontentsline
\let\newlabel\oldnewlabel
\fi}
\fi}
\global\let\hyper@last\relax 
\gdef\HyperFirstAtBeginDocument#1{#1}
\providecommand\HyField@AuxAddToFields[1]{}
\providecommand\HyField@AuxAddToCoFields[2]{}
\providecommand \acro@used@once [4]{}
\providecommand \acro@used@twice [4]{}
\providecommand \acro@pages [2]{}
\providecommand \acro@rerun@check {}
\providecommand \acro@print@list {}
\providecommand \acro@barriers [2]{}
\@writefile{toc}{\contentsline {chapter}{Approval Letter}{i}{chapter*.2}}
\@writefile{toc}{\contentsline {chapter}{Abstract}{ii}{chapter*.3}}
\@writefile{toc}{\contentsline {chapter}{Acknowledgment}{iii}{chapter*.4}}
\@writefile{lof}{\noaddvspace }
\@writefile{lot}{\noaddvspace }
\acro@print@list 
\@writefile{toc}{\contentsline {chapter}{List of Abbreviations}{vii}{chapter*.7}}
\@writefile{toc}{\contentsline {chapter}{\numberline {1}Introduction}{1}{chapter.1}}
\@writefile{lof}{\addvspace {10\p@ }}
\@writefile{lot}{\addvspace {10\p@ }}
\@writefile{toc}{\contentsline {section}{\numberline {1.1}Background}{1}{section.1.1}}
\newlabel{sec:bkgrnd}{{1.1}{1}{Background}{section.1.1}{}}
\@writefile{toc}{\contentsline {section}{\numberline {1.2}Problem Statement}{2}{section.1.2}}
\newlabel{sec:prbst}{{1.2}{2}{Problem Statement}{section.1.2}{}}
\@writefile{toc}{\contentsline {section}{\numberline {1.3}Objective}{3}{section.1.3}}
\newlabel{sec:objt}{{1.3}{3}{Objective}{section.1.3}{}}
\@writefile{toc}{\contentsline {section}{\numberline {1.4}Application}{3}{section.1.4}}
\newlabel{sec:appli}{{1.4}{3}{Application}{section.1.4}{}}
\@writefile{toc}{\contentsline {section}{\numberline {1.5}Features}{3}{section.1.5}}
\newlabel{sec:feat}{{1.5}{3}{Features}{section.1.5}{}}
\@writefile{toc}{\contentsline {section}{\numberline {1.6}Feasibility Analysis}{4}{section.1.6}}
\newlabel{sec:feasa}{{1.6}{4}{Feasibility Analysis}{section.1.6}{}}
\@writefile{toc}{\contentsline {subsection}{\numberline {1.6.1}Economic feasibility }{4}{subsection.1.6.1}}
\newlabel{subfe}{{1.6.1}{4}{Economic feasibility }{subsection.1.6.1}{}}
\@writefile{toc}{\contentsline {subsection}{\numberline {1.6.2}Technical feasibility }{4}{subsection.1.6.2}}
\newlabel{subft}{{1.6.2}{4}{Technical feasibility }{subsection.1.6.2}{}}
\@writefile{toc}{\contentsline {subsection}{\numberline {1.6.3}Operational feasibility }{5}{subsection.1.6.3}}
\newlabel{subfo}{{1.6.3}{5}{Operational feasibility }{subsection.1.6.3}{}}
\@writefile{toc}{\contentsline {section}{\numberline {1.7}System Requirement}{5}{section.1.7}}
\newlabel{sec:sysreq}{{1.7}{5}{System Requirement}{section.1.7}{}}
\@writefile{toc}{\contentsline {subsection}{\numberline {1.7.1}Software Requirement }{5}{subsection.1.7.1}}
\newlabel{sftreq}{{1.7.1}{5}{Software Requirement }{subsection.1.7.1}{}}
\@writefile{toc}{\contentsline {subsection}{\numberline {1.7.2}Hardware Requirement }{5}{subsection.1.7.2}}
\newlabel{hrdreq}{{1.7.2}{5}{Hardware Requirement }{subsection.1.7.2}{}}
\@writefile{toc}{\contentsline {chapter}{\numberline {2}Literature Review}{6}{chapter.2}}
\@writefile{lof}{\addvspace {10\p@ }}
\@writefile{lot}{\addvspace {10\p@ }}
\@writefile{toc}{\contentsline {section}{\numberline {2.1}Background}{6}{section.2.1}}
\newlabel{sec:litback}{{2.1}{6}{Background}{section.2.1}{}}
\@writefile{toc}{\contentsline {chapter}{\numberline {3}Methodology}{10}{chapter.3}}
\@writefile{lof}{\addvspace {10\p@ }}
\@writefile{lot}{\addvspace {10\p@ }}
\@writefile{toc}{\contentsline {section}{\numberline {3.1}Prototype model}{10}{section.3.1}}
\newlabel{sec:agilemet}{{3.1}{10}{Prototype model}{section.3.1}{}}
\@writefile{toc}{\contentsline {section}{\numberline {3.2}Chain Algorithm}{11}{section.3.2}}
\newlabel{sec:chainAlgorithm}{{3.2}{11}{Chain Algorithm}{section.3.2}{}}
\@writefile{toc}{\contentsline {subsection}{\numberline {3.2.1}User perspective}{12}{subsection.3.2.1}}
\@writefile{lof}{\contentsline {figure}{\numberline {3.1}{\ignorespaces Chain for new waste \relax }}{12}{figure.caption.8}}
\providecommand*\caption@xref[2]{\@setref\relax\@undefined{#1}}
\newlabel{user_perspective}{{3.1}{12}{Chain for new waste \relax }{figure.caption.8}{}}
\@writefile{toc}{\contentsline {subsection}{\numberline {3.2.2}Pickers perspective}{12}{subsection.3.2.2}}
\@writefile{lof}{\contentsline {figure}{\numberline {3.2}{\ignorespaces Chain for Picker's Request \relax }}{13}{figure.caption.9}}
\newlabel{pickers_perspective}{{3.2}{13}{Chain for Picker's Request \relax }{figure.caption.9}{}}
\@writefile{lof}{\contentsline {figure}{\numberline {3.3}{\ignorespaces Overall Chaining process \relax }}{13}{figure.caption.10}}
\newlabel{chain_algorithm}{{3.3}{13}{Overall Chaining process \relax }{figure.caption.10}{}}
\@writefile{lof}{\contentsline {figure}{\numberline {3.4}{\ignorespaces Invalid Chaining Process \relax }}{14}{figure.caption.11}}
\newlabel{invalid_chaining}{{3.4}{14}{Invalid Chaining Process \relax }{figure.caption.11}{}}
\@writefile{lof}{\contentsline {figure}{\numberline {3.5}{\ignorespaces Valid Chaining Process \relax }}{14}{figure.caption.12}}
\newlabel{valid_chaining}{{3.5}{14}{Valid Chaining Process \relax }{figure.caption.12}{}}
\@writefile{toc}{\contentsline {section}{\numberline {3.3}Use case diagram}{14}{section.3.3}}
\@writefile{lof}{\contentsline {figure}{\numberline {3.6}{\ignorespaces Valid Chaining Process \relax }}{15}{figure.caption.13}}
\newlabel{usecase}{{3.6}{15}{Valid Chaining Process \relax }{figure.caption.13}{}}
\@writefile{toc}{\contentsline {chapter}{\numberline {4}Results and Discussion}{16}{chapter.4}}
\@writefile{lof}{\addvspace {10\p@ }}
\@writefile{lot}{\addvspace {10\p@ }}
\@writefile{toc}{\contentsline {section}{\numberline {4.1}Output}{16}{section.4.1}}
\@writefile{lof}{\contentsline {figure}{\numberline {4.1}{\ignorespaces View data by type\relax }}{16}{figure.caption.14}}
\newlabel{viewdata}{{4.1}{16}{View data by type\relax }{figure.caption.14}{}}
\@writefile{lof}{\contentsline {subfigure}{\numberline{(a)}{\ignorespaces {Circular patterns}}}{16}{subfigure.1.1}}
\@writefile{lof}{\contentsline {subfigure}{\numberline{(b)}{\ignorespaces {General data}}}{16}{subfigure.1.2}}
\@writefile{lof}{\contentsline {figure}{\numberline {4.2}{\ignorespaces  Nearby trucks and directions\relax }}{17}{figure.caption.15}}
\newlabel{nearbytrucks}{{4.2}{17}{Nearby trucks and directions\relax }{figure.caption.15}{}}
\@writefile{lof}{\contentsline {subfigure}{\numberline{(a)}{\ignorespaces {Direction }}}{17}{subfigure.2.1}}
\@writefile{lof}{\contentsline {subfigure}{\numberline{(b)}{\ignorespaces {Nearby trucks}}}{17}{subfigure.2.2}}
\@writefile{toc}{\contentsline {section}{\numberline {4.2}Limitations}{17}{section.4.2}}
\bibstyle{IEEEtran}
\bibdata{library}
\@writefile{toc}{\contentsline {section}{\numberline {4.3}Problems Faced}{18}{section.4.3}}
\@writefile{toc}{\contentsline {section}{\numberline {4.4}Work Schedule}{18}{section.4.4}}
\@writefile{toc}{\contentsline {chapter}{References}{18}{figure.caption.16}}
\@writefile{lof}{\contentsline {figure}{\numberline {4.3}{\ignorespaces Gantt Chart \relax }}{19}{figure.caption.16}}
\newlabel{ganttchart}{{4.3}{19}{Gantt Chart \relax }{figure.caption.16}{}}
\bibcite{hudson1988bibliography}{1}
\acro@rerun@check 
